<?xml version="1.0" encoding="iso-8859-1"?>
<!-- Generator: Adobe Illustrator 19.1.0, SVG Export Plug-In . SVG Version: 6.00 Build 0)  -->
<svg version="1.1" id="Layer_1" xmlns="http://www.w3.org/2000/svg" xmlns:xlink="http://www.w3.org/1999/xlink" x="0px" y="0px"
	 viewBox="-803.3 391.2 285 299.6" enable-background="new -803.3 391.2 285 299.6" xml:space="preserve">
<path fill="#09A7F8" stroke="#09A7F8" stroke-width="5" stroke-miterlimit="10" d="M-606.2,393.7h-116.1
	c-13.8,0-24.9,11.1-24.9,24.9v244.8c0,13.8,11.1,24.9,24.9,24.9h116.1c13.8,0,24.9-11.1,24.9-24.9V418.6
	C-581.6,404.8-592.7,393.7-606.2,393.7z M-722.3,403.3h116.1c8.4,0,15.3,6.9,15.3,15.3v13.8h-147v-13.8
	C-737.9,410.2-731,403.3-722.3,403.3z M-590.9,442v195h-147V442H-590.9z M-606.2,679h-116.1c-8.4,0-15.3-6.9-15.3-15.3v-17.1h147
	v17.1C-590.9,671.8-597.8,679-606.2,679z"/>
<circle fill="#09A7F8" cx="-664.4" cy="662.2" r="9.9"/>
<path fill="#09A7F8" d="M-789.2,439.3"/>
<path fill="#09A7F8" d="M-787.4,437.8"/>
<circle fill="#09A7F8" cx="-664.7" cy="662.2" r="9.9"/>
<path fill="#09A7F8" d="M-682.7,415c-2.1,0-3.9,1.8-3.9,3.9c0,2.1,1.8,3.9,3.9,3.9h35.7c2.1,0,3.9-1.8,3.9-3.9
	c0-2.4-1.8-3.9-3.9-3.9H-682.7z"/>
<path fill="#09A7F8" d="M-521.3,478h-4.5v-4.5c0-1.5-1.2-3-3-3c-1.5,0-3,1.2-3,3v4.5h-4.5c-1.5,0-3,1.2-3,3c0,1.5,1.2,3,3,3h4.5v4.5
	c0,1.5,1.2,3,3,3c1.5,0,3-1.2,3-3V484h4.5c1.5,0,3-1.2,3-3C-518.6,479.2-519.8,478-521.3,478z"/>
<path fill="#09A7F8" d="M-765.5,594.1h-4.5v-4.5c0-1.5-1.2-3-3-3c-1.5,0-3,1.2-3,3v4.5h-4.2c-1.5,0-3,1.2-3,3c0,1.8,1.2,3,3,3h4.5
	v4.5c0,1.5,1.2,3,3,3c1.5,0,3-1.2,3-3v-4.5h4.5c1.5,0,3-1.2,3-3C-762.2,595.3-763.7,594.1-765.5,594.1z"/>
<path fill="#09A7F8" d="M-771.5,447.7h-7.5v-7.5c0-2.1-1.8-4.2-4.2-4.2c-2.1,0-4.2,1.8-4.2,4.2v7.5h-7.2c-2.1,0-4.2,1.8-4.2,4.2
	c0,2.1,1.8,4.2,4.2,4.2h7.5v7.5c0,2.1,1.8,4.2,4.2,4.2c2.1,0,4.2-1.8,4.2-4.2v-7.5h7.5c2.1,0,4.2-1.8,4.2-4.2
	C-767.3,449.5-769.1,447.7-771.5,447.7z"/>
<circle fill="#09A7F8" cx="-797.9" cy="530.5" r="5.4"/>
<circle fill="#09A7F8" cx="-548.6" cy="641.8" r="5.4"/>
<circle fill="#09A7F8" cx="-553.1" cy="439" r="6.6"/>
<path fill="#09A7F8" d="M-611.9,513.7c-0.3-1.8-4.5-18.3-20.4-24.3c-9.6-3.6-26.1-4.2-32.7-4.2s-23.1,0.6-32.7,4.2
	c-16.5,6.3-20.1,23.7-20.4,24.3c-2.1,8.1-3,17.4-3,27.3c0,9.9,0.9,18.9,3,27c0.3,0.6,3.9,18.3,20.4,24.6c9.6,3.6,26.1,4.2,32.7,4.2
	c6.6,0,23.1-0.6,32.7-4.2c16.5-6.3,20.1-23.7,20.4-24.3c2.1-8.1,3-17.4,3-27.3C-608.9,531.1-609.8,522.1-611.9,513.7z M-696.5,572.5
	c0,0,5.4-22.8,14.1-14.1C-673.7,567.1-696.5,572.5-696.5,572.5z M-633.2,510.7c-0.3,25.5-13.5,37.8-24.3,43.5l2.4,9.9l-5.1,5.1
	l-12-12c0,2.1-0.9,4.2-2.7,6l-12.6-12.6c1.5-1.5,3.9-2.4,6-2.7l-12-12l5.1-5.1l9.9,2.4c5.7-10.5,18-24,43.5-24.3h1.5L-633.2,510.7z"
	/>
<circle fill="#09A7F8" cx="-648.8" cy="524.8" r="6"/>
</svg>
